------------------------------------------------------------------------
r915130 | scripty | 2009-01-22 13:51:48 +0000 (Thu, 22 Jan 2009) | 1 line

SVN_SILENT made messages (.desktop file)
------------------------------------------------------------------------
r916907 | scripty | 2009-01-26 13:04:03 +0000 (Mon, 26 Jan 2009) | 1 line

SVN_SILENT made messages (.desktop file)
------------------------------------------------------------------------
r925026 | scripty | 2009-02-12 07:44:00 +0000 (Thu, 12 Feb 2009) | 1 line

SVN_SILENT made messages (.desktop file)
------------------------------------------------------------------------
r926645 | nlecureuil | 2009-02-15 22:05:42 +0000 (Sun, 15 Feb 2009) | 1 line

Fix mandriva support
------------------------------------------------------------------------
