------------------------------------------------------------------------
r961876 | shaforo | 2009-04-30 21:02:51 +0000 (Thu, 30 Apr 2009) | 7 lines

BUG: 191074
Hang when no accelerator marker set and catalog is opened
patch by Chusslove Illich 

thanks ;)


------------------------------------------------------------------------
r964466 | shaforo | 2009-05-06 18:09:37 +0000 (Wed, 06 May 2009) | 3 lines

fix


------------------------------------------------------------------------
r964693 | habacker | 2009-05-07 09:54:01 +0000 (Thu, 07 May 2009) | 1 line

crash #191890 fix backported from trunk
------------------------------------------------------------------------
r965021 | sars | 2009-05-07 20:00:12 +0000 (Thu, 07 May 2009) | 1 line

merge windows fix from trunk.
------------------------------------------------------------------------
r966489 | scripty | 2009-05-11 09:06:28 +0000 (Mon, 11 May 2009) | 1 line

SVN_SILENT made messages (.desktop file)
------------------------------------------------------------------------
r968154 | scripty | 2009-05-15 07:43:53 +0000 (Fri, 15 May 2009) | 1 line

SVN_SILENT made messages (.desktop file)
------------------------------------------------------------------------
r974176 | rdieter | 2009-05-28 16:57:33 +0000 (Thu, 28 May 2009) | 2 lines

s/blockingquote/blockquote/

------------------------------------------------------------------------
